%YAML 1.1
%TAG !u! tag:unity3d.com,2011:
--- !u!1 &1720228151189410318
GameObject:
  m_ObjectHideFlags: 0
  m_CorrespondingSourceObject: {fileID: 0}
  m_PrefabInstance: {fileID: 0}
  m_PrefabAsset: {fileID: 0}
  serializedVersion: 6
  m_Component:
  - component: {fileID: 9139720657581080648}
  - component: {fileID: 7569423855700071465}
  - component: {fileID: 2394969793150851577}
  m_Layer: 31
  m_Name: Layer1
  m_TagString: Untagged
  m_Icon: {fileID: 0}
  m_NavMeshLayer: 0
  m_StaticEditorFlags: 0
  m_IsActive: 1
--- !u!4 &9139720657581080648
Transform:
  m_ObjectHideFlags: 0
  m_CorrespondingSourceObject: {fileID: 0}
  m_PrefabInstance: {fileID: 0}
  m_PrefabAsset: {fileID: 0}
  m_GameObject: {fileID: 1720228151189410318}
  m_LocalRotation: {x: -0, y: -0, z: -0, w: 1}
  m_LocalPosition: {x: 0, y: 0, z: 0}
  m_LocalScale: {x: 1, y: 1, z: 1}
  m_Children: []
  m_Father: {fileID: 3287211974110163917}
  m_RootOrder: 0
  m_LocalEulerAnglesHint: {x: 0, y: 0, z: 0}
--- !u!1839735485 &7569423855700071465
Tilemap:
  m_ObjectHideFlags: 0
  m_CorrespondingSourceObject: {fileID: 0}
  m_PrefabInstance: {fileID: 0}
  m_PrefabAsset: {fileID: 0}
  m_GameObject: {fileID: 1720228151189410318}
  m_Enabled: 1
  m_Tiles:
  - first: {x: -13, y: -8, z: 0}
    second:
      serializedVersion: 2
      m_TileIndex: 93
      m_TileSpriteIndex: 104
      m_TileMatrixIndex: 0
      m_TileColorIndex: 0
      m_TileObjectToInstantiateIndex: 65535
      m_AllTileFlags: 1073741825
  - first: {x: -12, y: -8, z: 0}
    second:
      serializedVersion: 2
      m_TileIndex: 91
      m_TileSpriteIndex: 103
      m_TileMatrixIndex: 0
      m_TileColorIndex: 0
      m_TileObjectToInstantiateIndex: 65535
      m_AllTileFlags: 1073741825
  - first: {x: -11, y: -8, z: 0}
    second:
      serializedVersion: 2
      m_TileIndex: 89
      m_TileSpriteIndex: 102
      m_TileMatrixIndex: 0
      m_TileColorIndex: 0
      m_TileObjectToInstantiateIndex: 65535
      m_AllTileFlags: 1073741825
  - first: {x: -9, y: -8, z: 0}
    second:
      serializedVersion: 2
      m_TileIndex: 94
      m_TileSpriteIndex: 101
      m_TileMatrixIndex: 0
      m_TileColorIndex: 0
      m_TileObjectToInstantiateIndex: 65535
      m_AllTileFlags: 1073741825
  - first: {x: -8, y: -8, z: 0}
    second:
      serializedVersion: 2
      m_TileIndex: 95
      m_TileSpriteIndex: 14
      m_TileMatrixIndex: 0
      m_TileColorIndex: 0
      m_TileObjectToInstantiateIndex: 65535
      m_AllTileFlags: 1073741825
  - first: {x: -7, y: -8, z: 0}
    second:
      serializedVersion: 2
      m_TileIndex: 96
      m_TileSpriteIndex: 12
      m_TileMatrixIndex: 0
      m_TileColorIndex: 0
      m_TileObjectToInstantiateIndex: 65535
      m_AllTileFlags: 1073741825
  - first: {x: -13, y: -7, z: 0}
    second:
      serializedVersion: 2
      m_TileIndex: 98
      m_TileSpriteIndex: 11
      m_TileMatrixIndex: 0
      m_TileColorIndex: 0
      m_TileObjectToInstantiateIndex: 65535
      m_AllTileFlags: 1073741825
  - first: {x: -12, y: -7, z: 0}
    second:
      serializedVersion: 2
      m_TileIndex: 92
      m_TileSpriteIndex: 10
      m_TileMatrixIndex: 0
      m_TileColorIndex: 0
      m_TileObjectToInstantiateIndex: 65535
      m_AllTileFlags: 1073741825
  - first: {x: -11, y: -7, z: 0}
    second:
      serializedVersion: 2
      m_TileIndex: 90
      m_TileSpriteIndex: 9
      m_TileMatrixIndex: 0
      m_TileColorIndex: 0
      m_TileObjectToInstantiateIndex: 65535
      m_AllTileFlags: 1073741825
  - first: {x: -9, y: -7, z: 0}
    second:
      serializedVersion: 2
      m_TileIndex: 100
      m_TileSpriteIndex: 85
      m_TileMatrixIndex: 0
      m_TileColorIndex: 0
      m_TileObjectToInstantiateIndex: 65535
      m_AllTileFlags: 1073741825
  - first: {x: -8, y: -7, z: 0}
    second:
      serializedVersion: 2
      m_TileIndex: 99
      m_TileSpriteIndex: 15
      m_TileMatrixIndex: 0
      m_TileColorIndex: 0
      m_TileObjectToInstantiateIndex: 65535
      m_AllTileFlags: 1073741825
  - first: {x: -7, y: -7, z: 0}
    second:
      serializedVersion: 2
      m_TileIndex: 97
      m_TileSpriteIndex: 13
      m_TileMatrixIndex: 0
      m_TileColorIndex: 0
      m_TileObjectToInstantiateIndex: 65535
      m_AllTileFlags: 1073741825
  - first: {x: 1, y: -3, z: 0}
    second:
      serializedVersion: 2
      m_TileIndex: 76
      m_TileSpriteIndex: 100
      m_TileMatrixIndex: 0
      m_TileColorIndex: 0
      m_TileObjectToInstantiateIndex: 65535
      m_AllTileFlags: 1073741825
  - first: {x: 2, y: -3, z: 0}
    second:
      serializedVersion: 2
      m_TileIndex: 77
      m_TileSpriteIndex: 99
      m_TileMatrixIndex: 0
      m_TileColorIndex: 0
      m_TileObjectToInstantiateIndex: 65535
      m_AllTileFlags: 1073741825
  - first: {x: 3, y: -3, z: 0}
    second:
      serializedVersion: 2
      m_TileIndex: 78
      m_TileSpriteIndex: 98
      m_TileMatrixIndex: 0
      m_TileColorIndex: 0
      m_TileObjectToInstantiateIndex: 65535
      m_AllTileFlags: 1073741825
  - first: {x: 4, y: -3, z: 0}
    second:
      serializedVersion: 2
      m_TileIndex: 79
      m_TileSpriteIndex: 97
      m_TileMatrixIndex: 0
      m_TileColorIndex: 0
      m_TileObjectToInstantiateIndex: 65535
      m_AllTileFlags: 1073741825
  - first: {x: 5, y: -3, z: 0}
    second:
      serializedVersion: 2
      m_TileIndex: 80
      m_TileSpriteIndex: 96
      m_TileMatrixIndex: 0
      m_TileColorIndex: 0
      m_TileObjectToInstantiateIndex: 65535
      m_AllTileFlags: 1073741825
  - first: {x: 6, y: -3, z: 0}
    second:
      serializedVersion: 2
      m_TileIndex: 81
      m_TileSpriteIndex: 95
      m_TileMatrixIndex: 0
      m_TileColorIndex: 0
      m_TileObjectToInstantiateIndex: 65535
      m_AllTileFlags: 1073741825
  - first: {x: 7, y: -3, z: 0}
    second:
      serializedVersion: 2
      m_TileIndex: 82
      m_TileSpriteIndex: 94
      m_TileMatrixIndex: 0
      m_TileColorIndex: 0
      m_TileObjectToInstantiateIndex: 65535
      m_AllTileFlags: 1073741825
  - first: {x: 8, y: -3, z: 0}
    second:
      serializedVersion: 2
      m_TileIndex: 83
      m_TileSpriteIndex: 93
      m_TileMatrixIndex: 0
      m_TileColorIndex: 0
      m_TileObjectToInstantiateIndex: 65535
      m_AllTileFlags: 1073741825
  - first: {x: 9, y: -3, z: 0}
    second:
      serializedVersion: 2
      m_TileIndex: 84
      m_TileSpriteIndex: 92
      m_TileMatrixIndex: 0
      m_TileColorIndex: 0
      m_TileObjectToInstantiateIndex: 65535
      m_AllTileFlags: 1073741825
  - first: {x: -4, y: -2, z: 0}
    second:
      serializedVersion: 2
      m_TileIndex: 62
      m_TileSpriteIndex: 91
      m_TileMatrixIndex: 0
      m_TileColorIndex: 0
      m_TileObjectToInstantiateIndex: 65535
      m_AllTileFlags: 1073741825
  - first: {x: -3, y: -2, z: 0}
    second:
      serializedVersion: 2
      m_TileIndex: 63
      m_TileSpriteIndex: 90
      m_TileMatrixIndex: 0
      m_TileColorIndex: 0
      m_TileObjectToInstantiateIndex: 65535
      m_AllTileFlags: 1073741825
  - first: {x: -2, y: -2, z: 0}
    second:
      serializedVersion: 2
      m_TileIndex: 64
      m_TileSpriteIndex: 89
      m_TileMatrixIndex: 0
      m_TileColorIndex: 0
      m_TileObjectToInstantiateIndex: 65535
      m_AllTileFlags: 1073741825
  - first: {x: -1, y: -2, z: 0}
    second:
      serializedVersion: 2
      m_TileIndex: 65
      m_TileSpriteIndex: 88
      m_TileMatrixIndex: 0
      m_TileColorIndex: 0
      m_TileObjectToInstantiateIndex: 65535
      m_AllTileFlags: 1073741825
  - first: {x: 0, y: -2, z: 0}
    second:
      serializedVersion: 2
      m_TileIndex: 66
      m_TileSpriteIndex: 87
      m_TileMatrixIndex: 0
      m_TileColorIndex: 0
      m_TileObjectToInstantiateIndex: 65535
      m_AllTileFlags: 1073741825
  - first: {x: 1, y: -2, z: 0}
    second:
      serializedVersion: 2
      m_TileIndex: 67
      m_TileSpriteIndex: 86
      m_TileMatrixIndex: 0
      m_TileColorIndex: 0
      m_TileObjectToInstantiateIndex: 65535
      m_AllTileFlags: 1073741825
  - first: {x: 2, y: -2, z: 0}
    second:
      serializedVersion: 2
      m_TileIndex: 68
      m_TileSpriteIndex: 84
      m_TileMatrixIndex: 0
      m_TileColorIndex: 0
      m_TileObjectToInstantiateIndex: 65535
      m_AllTileFlags: 1073741825
  - first: {x: 3, y: -2, z: 0}
    second:
      serializedVersion: 2
      m_TileIndex: 69
      m_TileSpriteIndex: 83
      m_TileMatrixIndex: 0
      m_TileColorIndex: 0
      m_TileObjectToInstantiateIndex: 65535
      m_AllTileFlags: 1073741825
  - first: {x: 4, y: -2, z: 0}
    second:
      serializedVersion: 2
      m_TileIndex: 70
      m_TileSpriteIndex: 82
      m_TileMatrixIndex: 0
      m_TileColorIndex: 0
      m_TileObjectToInstantiateIndex: 65535
      m_AllTileFlags: 1073741825
  - first: {x: 5, y: -2, z: 0}
    second:
      serializedVersion: 2
      m_TileIndex: 71
      m_TileSpriteIndex: 81
      m_TileMatrixIndex: 0
      m_TileColorIndex: 0
      m_TileObjectToInstantiateIndex: 65535
      m_AllTileFlags: 1073741825
  - first: {x: 6, y: -2, z: 0}
    second:
      serializedVersion: 2
      m_TileIndex: 72
      m_TileSpriteIndex: 80
      m_TileMatrixIndex: 0
      m_TileColorIndex: 0
      m_TileObjectToInstantiateIndex: 65535
      m_AllTileFlags: 1073741825
  - first: {x: 7, y: -2, z: 0}
    second:
      serializedVersion: 2
      m_TileIndex: 73
      m_TileSpriteIndex: 79
      m_TileMatrixIndex: 0
      m_TileColorIndex: 0
      m_TileObjectToInstantiateIndex: 65535
      m_AllTileFlags: 1073741825
  - first: {x: 8, y: -2, z: 0}
    second:
      serializedVersion: 2
      m_TileIndex: 74
      m_TileSpriteIndex: 78
      m_TileMatrixIndex: 0
      m_TileColorIndex: 0
      m_TileObjectToInstantiateIndex: 65535
      m_AllTileFlags: 1073741825
  - first: {x: 9, y: -2, z: 0}
    second:
      serializedVersion: 2
      m_TileIndex: 75
      m_TileSpriteIndex: 77
      m_TileMatrixIndex: 0
      m_TileColorIndex: 0
      m_TileObjectToInstantiateIndex: 65535
      m_AllTileFlags: 1073741825
  - first: {x: -4, y: -1, z: 0}
    second:
      serializedVersion: 2
      m_TileIndex: 50
      m_TileSpriteIndex: 76
      m_TileMatrixIndex: 0
      m_TileColorIndex: 0
      m_TileObjectToInstantiateIndex: 65535
      m_AllTileFlags: 1073741825
  - first: {x: -3, y: -1, z: 0}
    second:
      serializedVersion: 2
      m_TileIndex: 51
      m_TileSpriteIndex: 75
      m_TileMatrixIndex: 0
      m_TileColorIndex: 0
      m_TileObjectToInstantiateIndex: 65535
      m_AllTileFlags: 1073741825
  - first: {x: -2, y: -1, z: 0}
    second:
      serializedVersion: 2
      m_TileIndex: 52
      m_TileSpriteIndex: 74
      m_TileMatrixIndex: 0
      m_TileColorIndex: 0
      m_TileObjectToInstantiateIndex: 65535
      m_AllTileFlags: 1073741825
  - first: {x: -1, y: -1, z: 0}
    second:
      serializedVersion: 2
      m_TileIndex: 53
      m_TileSpriteIndex: 73
      m_TileMatrixIndex: 0
      m_TileColorIndex: 0
      m_TileObjectToInstantiateIndex: 65535
      m_AllTileFlags: 1073741825
  - first: {x: 0, y: -1, z: 0}
    second:
      serializedVersion: 2
      m_TileIndex: 54
      m_TileSpriteIndex: 72
      m_TileMatrixIndex: 0
      m_TileColorIndex: 0
      m_TileObjectToInstantiateIndex: 65535
      m_AllTileFlags: 1073741825
  - first: {x: 1, y: -1, z: 0}
    second:
      serializedVersion: 2
      m_TileIndex: 55
      m_TileSpriteIndex: 71
      m_TileMatrixIndex: 0
      m_TileColorIndex: 0
      m_TileObjectToInstantiateIndex: 65535
      m_AllTileFlags: 1073741825
  - first: {x: 2, y: -1, z: 0}
    second:
      serializedVersion: 2
      m_TileIndex: 56
      m_TileSpriteIndex: 70
      m_TileMatrixIndex: 0
      m_TileColorIndex: 0
      m_TileObjectToInstantiateIndex: 65535
      m_AllTileFlags: 1073741825
  - first: {x: 3, y: -1, z: 0}
    second:
      serializedVersion: 2
      m_TileIndex: 57
      m_TileSpriteIndex: 69
      m_TileMatrixIndex: 0
      m_TileColorIndex: 0
      m_TileObjectToInstantiateIndex: 65535
      m_AllTileFlags: 1073741825
  - first: {x: 4, y: -1, z: 0}
    second:
      serializedVersion: 2
      m_TileIndex: 58
      m_TileSpriteIndex: 68
      m_TileMatrixIndex: 0
      m_TileColorIndex: 0
      m_TileObjectToInstantiateIndex: 65535
      m_AllTileFlags: 1073741825
  - first: {x: 5, y: -1, z: 0}
    second:
      serializedVersion: 2
      m_TileIndex: 59
      m_TileSpriteIndex: 67
      m_TileMatrixIndex: 0
      m_TileColorIndex: 0
      m_TileObjectToInstantiateIndex: 65535
      m_AllTileFlags: 1073741825
  - first: {x: 6, y: -1, z: 0}
    second:
      serializedVersion: 2
      m_TileIndex: 60
      m_TileSpriteIndex: 66
      m_TileMatrixIndex: 0
      m_TileColorIndex: 0
      m_TileObjectToInstantiateIndex: 65535
      m_AllTileFlags: 1073741825
  - first: {x: 7, y: -1, z: 0}
    second:
      serializedVersion: 2
      m_TileIndex: 61
      m_TileSpriteIndex: 65
      m_TileMatrixIndex: 0
      m_TileColorIndex: 0
      m_TileObjectToInstantiateIndex: 65535
      m_AllTileFlags: 1073741825
  - first: {x: -4, y: 0, z: 0}
    second:
      serializedVersion: 2
      m_TileIndex: 38
      m_TileSpriteIndex: 64
      m_TileMatrixIndex: 0
      m_TileColorIndex: 0
      m_TileObjectToInstantiateIndex: 65535
      m_AllTileFlags: 1073741825
  - first: {x: -3, y: 0, z: 0}
    second:
      serializedVersion: 2
      m_TileIndex: 39
      m_TileSpriteIndex: 63
      m_TileMatrixIndex: 0
      m_TileColorIndex: 0
      m_TileObjectToInstantiateIndex: 65535
      m_AllTileFlags: 1073741825
  - first: {x: -2, y: 0, z: 0}
    second:
      serializedVersion: 2
      m_TileIndex: 40
      m_TileSpriteIndex: 62
      m_TileMatrixIndex: 0
      m_TileColorIndex: 0
      m_TileObjectToInstantiateIndex: 65535
      m_AllTileFlags: 1073741825
  - first: {x: -1, y: 0, z: 0}
    second:
      serializedVersion: 2
      m_TileIndex: 41
      m_TileSpriteIndex: 61
      m_TileMatrixIndex: 0
      m_TileColorIndex: 0
      m_TileObjectToInstantiateIndex: 65535
      m_AllTileFlags: 1073741825
  - first: {x: 1, y: 0, z: 0}
    second:
      serializedVersion: 2
      m_TileIndex: 43
      m_TileSpriteIndex: 60
      m_TileMatrixIndex: 0
      m_TileColorIndex: 0
      m_TileObjectToInstantiateIndex: 65535
      m_AllTileFlags: 1073741825
  - first: {x: 2, y: 0, z: 0}
    second:
      serializedVersion: 2
      m_TileIndex: 44
      m_TileSpriteIndex: 59
      m_TileMatrixIndex: 0
      m_TileColorIndex: 0
      m_TileObjectToInstantiateIndex: 65535
      m_AllTileFlags: 1073741825
  - first: {x: 3, y: 0, z: 0}
    second:
      serializedVersion: 2
      m_TileIndex: 45
      m_TileSpriteIndex: 58
      m_TileMatrixIndex: 0
      m_TileColorIndex: 0
      m_TileObjectToInstantiateIndex: 65535
      m_AllTileFlags: 1073741825
  - first: {x: 4, y: 0, z: 0}
    second:
      serializedVersion: 2
      m_TileIndex: 46
      m_TileSpriteIndex: 57
      m_TileMatrixIndex: 0
      m_TileColorIndex: 0
      m_TileObjectToInstantiateIndex: 65535
      m_AllTileFlags: 1073741825
  - first: {x: 5, y: 0, z: 0}
    second:
      serializedVersion: 2
      m_TileIndex: 47
      m_TileSpriteIndex: 56
      m_TileMatrixIndex: 0
      m_TileColorIndex: 0
      m_TileObjectToInstantiateIndex: 65535
      m_AllTileFlags: 1073741825
  - first: {x: 6, y: 0, z: 0}
    second:
      serializedVersion: 2
      m_TileIndex: 48
      m_TileSpriteIndex: 55
      m_TileMatrixIndex: 0
      m_TileColorIndex: 0
      m_TileObjectToInstantiateIndex: 65535
      m_AllTileFlags: 1073741825
  - first: {x: 7, y: 0, z: 0}
    second:
      serializedVersion: 2
      m_TileIndex: 49
      m_TileSpriteIndex: 54
      m_TileMatrixIndex: 0
      m_TileColorIndex: 0
      m_TileObjectToInstantiateIndex: 65535
      m_AllTileFlags: 1073741825
  - first: {x: -4, y: 1, z: 0}
    second:
      serializedVersion: 2
      m_TileIndex: 26
      m_TileSpriteIndex: 53
      m_TileMatrixIndex: 0
      m_TileColorIndex: 0
      m_TileObjectToInstantiateIndex: 65535
      m_AllTileFlags: 1073741825
  - first: {x: -3, y: 1, z: 0}
    second:
      serializedVersion: 2
      m_TileIndex: 27
      m_TileSpriteIndex: 52
      m_TileMatrixIndex: 0
      m_TileColorIndex: 0
      m_TileObjectToInstantiateIndex: 65535
      m_AllTileFlags: 1073741825
  - first: {x: -2, y: 1, z: 0}
    second:
      serializedVersion: 2
      m_TileIndex: 28
      m_TileSpriteIndex: 51
      m_TileMatrixIndex: 0
      m_TileColorIndex: 0
      m_TileObjectToInstantiateIndex: 65535
      m_AllTileFlags: 1073741825
  - first: {x: -1, y: 1, z: 0}
    second:
      serializedVersion: 2
      m_TileIndex: 29
      m_TileSpriteIndex: 50
      m_TileMatrixIndex: 0
      m_TileColorIndex: 0
      m_TileObjectToInstantiateIndex: 65535
      m_AllTileFlags: 1073741825
  - first: {x: 0, y: 1, z: 0}
    second:
      serializedVersion: 2
      m_TileIndex: 30
      m_TileSpriteIndex: 49
      m_TileMatrixIndex: 0
      m_TileColorIndex: 0
      m_TileObjectToInstantiateIndex: 65535
      m_AllTileFlags: 1073741825
  - first: {x: 1, y: 1, z: 0}
    second:
      serializedVersion: 2
      m_TileIndex: 31
      m_TileSpriteIndex: 48
      m_TileMatrixIndex: 0
      m_TileColorIndex: 0
      m_TileObjectToInstantiateIndex: 65535
      m_AllTileFlags: 1073741825
  - first: {x: 2, y: 1, z: 0}
    second:
      serializedVersion: 2
      m_TileIndex: 32
      m_TileSpriteIndex: 47
      m_TileMatrixIndex: 0
      m_TileColorIndex: 0
      m_TileObjectToInstantiateIndex: 65535
      m_AllTileFlags: 1073741825
  - first: {x: 3, y: 1, z: 0}
    second:
      serializedVersion: 2
      m_TileIndex: 33
      m_TileSpriteIndex: 46
      m_TileMatrixIndex: 0
      m_TileColorIndex: 0
      m_TileObjectToInstantiateIndex: 65535
      m_AllTileFlags: 1073741825
  - first: {x: 4, y: 1, z: 0}
    second:
      serializedVersion: 2
      m_TileIndex: 34
      m_TileSpriteIndex: 45
      m_TileMatrixIndex: 0
      m_TileColorIndex: 0
      m_TileObjectToInstantiateIndex: 65535
      m_AllTileFlags: 1073741825
  - first: {x: 5, y: 1, z: 0}
    second:
      serializedVersion: 2
      m_TileIndex: 35
      m_TileSpriteIndex: 44
      m_TileMatrixIndex: 0
      m_TileColorIndex: 0
      m_TileObjectToInstantiateIndex: 65535
      m_AllTileFlags: 1073741825
  - first: {x: 6, y: 1, z: 0}
    second:
      serializedVersion: 2
      m_TileIndex: 36
      m_TileSpriteIndex: 43
      m_TileMatrixIndex: 0
      m_TileColorIndex: 0
      m_TileObjectToInstantiateIndex: 65535
      m_AllTileFlags: 1073741825
  - first: {x: 7, y: 1, z: 0}
    second:
      serializedVersion: 2
      m_TileIndex: 37
      m_TileSpriteIndex: 42
      m_TileMatrixIndex: 0
      m_TileColorIndex: 0
      m_TileObjectToInstantiateIndex: 65535
      m_AllTileFlags: 1073741825
  - first: {x: -4, y: 2, z: 0}
    second:
      serializedVersion: 2
      m_TileIndex: 13
      m_TileSpriteIndex: 41
      m_TileMatrixIndex: 0
      m_TileColorIndex: 0
      m_TileObjectToInstantiateIndex: 65535
      m_AllTileFlags: 1073741825
  - first: {x: -3, y: 2, z: 0}
    second:
      serializedVersion: 2
      m_TileIndex: 14
      m_TileSpriteIndex: 40
      m_TileMatrixIndex: 0
      m_TileColorIndex: 0
      m_TileObjectToInstantiateIndex: 65535
      m_AllTileFlags: 1073741825
  - first: {x: -2, y: 2, z: 0}
    second:
      serializedVersion: 2
      m_TileIndex: 15
      m_TileSpriteIndex: 39
      m_TileMatrixIndex: 0
      m_TileColorIndex: 0
      m_TileObjectToInstantiateIndex: 65535
      m_AllTileFlags: 1073741825
  - first: {x: -1, y: 2, z: 0}
    second:
      serializedVersion: 2
      m_TileIndex: 16
      m_TileSpriteIndex: 38
      m_TileMatrixIndex: 0
      m_TileColorIndex: 0
      m_TileObjectToInstantiateIndex: 65535
      m_AllTileFlags: 1073741825
  - first: {x: 0, y: 2, z: 0}
    second:
      serializedVersion: 2
      m_TileIndex: 17
      m_TileSpriteIndex: 37
      m_TileMatrixIndex: 0
      m_TileColorIndex: 0
      m_TileObjectToInstantiateIndex: 65535
      m_AllTileFlags: 1073741825
  - first: {x: 1, y: 2, z: 0}
    second:
      serializedVersion: 2
      m_TileIndex: 18
      m_TileSpriteIndex: 36
      m_TileMatrixIndex: 0
      m_TileColorIndex: 0
      m_TileObjectToInstantiateIndex: 65535
      m_AllTileFlags: 1073741825
  - first: {x: 2, y: 2, z: 0}
    second:
      serializedVersion: 2
      m_TileIndex: 19
      m_TileSpriteIndex: 35
      m_TileMatrixIndex: 0
      m_TileColorIndex: 0
      m_TileObjectToInstantiateIndex: 65535
      m_AllTileFlags: 1073741825
  - first: {x: 3, y: 2, z: 0}
    second:
      serializedVersion: 2
      m_TileIndex: 20
      m_TileSpriteIndex: 34
      m_TileMatrixIndex: 0
      m_TileColorIndex: 0
      m_TileObjectToInstantiateIndex: 65535
      m_AllTileFlags: 1073741825
  - first: {x: 4, y: 2, z: 0}
    second:
      serializedVersion: 2
      m_TileIndex: 21
      m_TileSpriteIndex: 33
      m_TileMatrixIndex: 0
      m_TileColorIndex: 0
      m_TileObjectToInstantiateIndex: 65535
      m_AllTileFlags: 1073741825
  - first: {x: 5, y: 2, z: 0}
    second:
      serializedVersion: 2
      m_TileIndex: 22
      m_TileSpriteIndex: 32
      m_TileMatrixIndex: 0
      m_TileColorIndex: 0
      m_TileObjectToInstantiateIndex: 65535
      m_AllTileFlags: 1073741825
  - first: {x: 6, y: 2, z: 0}
    second:
      serializedVersion: 2
      m_TileIndex: 23
      m_TileSpriteIndex: 31
      m_TileMatrixIndex: 0
      m_TileColorIndex: 0
      m_TileObjectToInstantiateIndex: 65535
      m_AllTileFlags: 1073741825
  - first: {x: 7, y: 2, z: 0}
    second:
      serializedVersion: 2
      m_TileIndex: 24
      m_TileSpriteIndex: 30
      m_TileMatrixIndex: 0
      m_TileColorIndex: 0
      m_TileObjectToInstantiateIndex: 65535
      m_AllTileFlags: 1073741825
  - first: {x: 8, y: 2, z: 0}
    second:
      serializedVersion: 2
      m_TileIndex: 25
      m_TileSpriteIndex: 29
      m_TileMatrixIndex: 0
      m_TileColorIndex: 0
      m_TileObjectToInstantiateIndex: 65535
      m_AllTileFlags: 1073741825
  - first: {x: -4, y: 3, z: 0}
    second:
      serializedVersion: 2
      m_TileIndex: 0
      m_TileSpriteIndex: 28
      m_TileMatrixIndex: 0
      m_TileColorIndex: 0
      m_TileObjectToInstantiateIndex: 65535
      m_AllTileFlags: 1073741825
  - first: {x: -3, y: 3, z: 0}
    second:
      serializedVersion: 2
      m_TileIndex: 1
      m_TileSpriteIndex: 27
      m_TileMatrixIndex: 0
      m_TileColorIndex: 0
      m_TileObjectToInstantiateIndex: 65535
      m_AllTileFlags: 1073741825
  - first: {x: -2, y: 3, z: 0}
    second:
      serializedVersion: 2
      m_TileIndex: 2
      m_TileSpriteIndex: 26
      m_TileMatrixIndex: 0
      m_TileColorIndex: 0
      m_TileObjectToInstantiateIndex: 65535
      m_AllTileFlags: 1073741825
  - first: {x: -1, y: 3, z: 0}
    second:
      serializedVersion: 2
      m_TileIndex: 3
      m_TileSpriteIndex: 25
      m_TileMatrixIndex: 0
      m_TileColorIndex: 0
      m_TileObjectToInstantiateIndex: 65535
      m_AllTileFlags: 1073741825
  - first: {x: 0, y: 3, z: 0}
    second:
      serializedVersion: 2
      m_TileIndex: 4
      m_TileSpriteIndex: 24
      m_TileMatrixIndex: 0
      m_TileColorIndex: 0
      m_TileObjectToInstantiateIndex: 65535
      m_AllTileFlags: 1073741825
  - first: {x: 1, y: 3, z: 0}
    second:
      serializedVersion: 2
      m_TileIndex: 5
      m_TileSpriteIndex: 23
      m_TileMatrixIndex: 0
      m_TileColorIndex: 0
      m_TileObjectToInstantiateIndex: 65535
      m_AllTileFlags: 1073741825
  - first: {x: 2, y: 3, z: 0}
    second:
      serializedVersion: 2
      m_TileIndex: 6
      m_TileSpriteIndex: 22
      m_TileMatrixIndex: 0
      m_TileColorIndex: 0
      m_TileObjectToInstantiateIndex: 65535
      m_AllTileFlags: 1073741825
  - first: {x: 3, y: 3, z: 0}
    second:
      serializedVersion: 2
      m_TileIndex: 7
      m_TileSpriteIndex: 21
      m_TileMatrixIndex: 0
      m_TileColorIndex: 0
      m_TileObjectToInstantiateIndex: 65535
      m_AllTileFlags: 1073741825
  - first: {x: 4, y: 3, z: 0}
    second:
      serializedVersion: 2
      m_TileIndex: 8
      m_TileSpriteIndex: 20
      m_TileMatrixIndex: 0
      m_TileColorIndex: 0
      m_TileObjectToInstantiateIndex: 65535
      m_AllTileFlags: 1073741825
  - first: {x: 5, y: 3, z: 0}
    second:
      serializedVersion: 2
      m_TileIndex: 9
      m_TileSpriteIndex: 19
      m_TileMatrixIndex: 0
      m_TileColorIndex: 0
      m_TileObjectToInstantiateIndex: 65535
      m_AllTileFlags: 1073741825
  - first: {x: 6, y: 3, z: 0}
    second:
      serializedVersion: 2
      m_TileIndex: 10
      m_TileSpriteIndex: 18
      m_TileMatrixIndex: 0
      m_TileColorIndex: 0
      m_TileObjectToInstantiateIndex: 65535
      m_AllTileFlags: 1073741825
  - first: {x: 7, y: 3, z: 0}
    second:
      serializedVersion: 2
      m_TileIndex: 11
      m_TileSpriteIndex: 17
      m_TileMatrixIndex: 0
      m_TileColorIndex: 0
      m_TileObjectToInstantiateIndex: 65535
      m_AllTileFlags: 1073741825
  - first: {x: 8, y: 3, z: 0}
    second:
      serializedVersion: 2
      m_TileIndex: 12
      m_TileSpriteIndex: 16
      m_TileMatrixIndex: 0
      m_TileColorIndex: 0
      m_TileObjectToInstantiateIndex: 65535
      m_AllTileFlags: 1073741825
  m_AnimatedTiles: {}
  m_TileAssetArray:
  - m_RefCount: 1
    m_Data: {fileID: 11400000, guid: 730f2dd01be32e742ac448226090ad84, type: 2}
  - m_RefCount: 1
    m_Data: {fileID: 11400000, guid: 9b9a415454d39d74e9fac1bd119684e3, type: 2}
  - m_RefCount: 1
    m_Data: {fileID: 11400000, guid: 7f895a829626cf94990b2cd277cfa6b0, type: 2}
  - m_RefCount: 1
    m_Data: {fileID: 11400000, guid: 5b83c7116a1eece4da228156e7b76623, type: 2}
  - m_RefCount: 1
    m_Data: {fileID: 11400000, guid: 595618f0f1e1cfb469b42c751f829522, type: 2}
  - m_RefCount: 1
    m_Data: {fileID: 11400000, guid: 3c593f41155c6e04f971381c7658e1b4, type: 2}
  - m_RefCount: 1
    m_Data: {fileID: 11400000, guid: 2d7e87fc3d10d8b48b9b7d8fe4e27239, type: 2}
  - m_RefCount: 1
    m_Data: {fileID: 11400000, guid: 9285f2bb1073c1b41814709220f97fd9, type: 2}
  - m_RefCount: 1
    m_Data: {fileID: 11400000, guid: 099d4938f08f90547aa126901667f66b, type: 2}
  - m_RefCount: 1
    m_Data: {fileID: 11400000, guid: f4ffe2e8fd68ac94f84bc4f9db561ed2, type: 2}
  - m_RefCount: 1
    m_Data: {fileID: 11400000, guid: 78ce8e12edf2a4a409e080120cf26f7a, type: 2}
  - m_RefCount: 1
    m_Data: {fileID: 11400000, guid: 9773f2acb44c38f4695fa5df2f4fb7bc, type: 2}
  - m_RefCount: 1
    m_Data: {fileID: 11400000, guid: fcb38ea46aa051f46a1b0724e833bc46, type: 2}
  - m_RefCount: 1
    m_Data: {fileID: 11400000, guid: d5b7fe531c2769044b0db027c13122b1, type: 2}
  - m_RefCount: 1
    m_Data: {fileID: 11400000, guid: 876f9a0498d209f42ad7c100c24cbadb, type: 2}
  - m_RefCount: 1
    m_Data: {fileID: 11400000, guid: 103ee647c27381149adad209f05c6627, type: 2}
  - m_RefCount: 1
    m_Data: {fileID: 11400000, guid: 1c43fa7933739d344805b2df0cf19d19, type: 2}
  - m_RefCount: 1
    m_Data: {fileID: 11400000, guid: 9c085e968b6a0f34bb7f5540ac7fa9b9, type: 2}
  - m_RefCount: 1
    m_Data: {fileID: 11400000, guid: d1eae083ebe12114a895a09212cd76f3, type: 2}
  - m_RefCount: 1
    m_Data: {fileID: 11400000, guid: fa4bb3f117be93c4496ce4ea102d4afa, type: 2}
  - m_RefCount: 1
    m_Data: {fileID: 11400000, guid: 728a0678538a1cf489b08ceeda54e1c4, type: 2}
  - m_RefCount: 1
    m_Data: {fileID: 11400000, guid: 50a89a10db8910849ab968abd906ce66, type: 2}
  - m_RefCount: 1
    m_Data: {fileID: 11400000, guid: 3b696c70dc50bf5438cc48ab3fbdcdc1, type: 2}
  - m_RefCount: 1
    m_Data: {fileID: 11400000, guid: 4b55b4d1acaa79d4782cdd709235878f, type: 2}
  - m_RefCount: 1
    m_Data: {fileID: 11400000, guid: 30a256bd34d6e8c40b751779ff770509, type: 2}
  - m_RefCount: 1
    m_Data: {fileID: 11400000, guid: cbdbdbc9fda4c59499a787a1304e035d, type: 2}
  - m_RefCount: 1
    m_Data: {fileID: 11400000, guid: 6a5c98fba10998645af5f92f205f4c38, type: 2}
  - m_RefCount: 1
    m_Data: {fileID: 11400000, guid: 4bad4f02a7661494ab2c80f86d3bc735, type: 2}
  - m_RefCount: 1
    m_Data: {fileID: 11400000, guid: 952439e2a5635934798348aff726efc1, type: 2}
  - m_RefCount: 1
    m_Data: {fileID: 11400000, guid: 08bae9a1b84354d438581d896fac09cd, type: 2}
  - m_RefCount: 1
    m_Data: {fileID: 11400000, guid: d4beb2e27f969164cbc539d99ad32611, type: 2}
  - m_RefCount: 1
    m_Data: {fileID: 11400000, guid: 8c26a40213840604ca1edda921768390, type: 2}
  - m_RefCount: 1
    m_Data: {fileID: 11400000, guid: f4a673c8c09943f45adcc1b7be09ef44, type: 2}
  - m_RefCount: 1
    m_Data: {fileID: 11400000, guid: b72842aa48d6f1442af9554bcaace6a9, type: 2}
  - m_RefCount: 1
    m_Data: {fileID: 11400000, guid: 43dfa5ee109580c478d4057b0e2839c9, type: 2}
  - m_RefCount: 1
    m_Data: {fileID: 11400000, guid: aed44efc5e122a54d83c2ac94ea8fc49, type: 2}
  - m_RefCount: 1
    m_Data: {fileID: 11400000, guid: 1d9885bd7f9d80d40b2c01dac001be6c, type: 2}
  - m_RefCount: 1
    m_Data: {fileID: 11400000, guid: 2ab969d8c4080944bae626e2299ecf80, type: 2}
  - m_RefCount: 1
    m_Data: {fileID: 11400000, guid: eb2209965d71e2949a9febac03dad6aa, type: 2}
  - m_RefCount: 1
    m_Data: {fileID: 11400000, guid: 7444be79e5584ac469d4ce2bc2ff8818, type: 2}
  - m_RefCount: 1
    m_Data: {fileID: 11400000, guid: eadd231c546b98340a9c800ed446994e, type: 2}
  - m_RefCount: 1
    m_Data: {fileID: 11400000, guid: c3360574b58ec024b9531ef0f8b6e248, type: 2}
  - m_RefCount: 0
    m_Data: {fileID: 0}
  - m_RefCount: 1
    m_Data: {fileID: 11400000, guid: 78137b0186d503b47a818801b32a543f, type: 2}
  - m_RefCount: 1
    m_Data: {fileID: 11400000, guid: 6ea737e62c141d94bbbfb8dc838e4b48, type: 2}
  - m_RefCount: 1
    m_Data: {fileID: 11400000, guid: 95c66008161efe34b83c26cd5e8519be, type: 2}
  - m_RefCount: 1
    m_Data: {fileID: 11400000, guid: ef19e84f39ed84f4eaed75d1bf1acde7, type: 2}
  - m_RefCount: 1
    m_Data: {fileID: 11400000, guid: 5081081c72e6c81458e423a0e8865e6d, type: 2}
  - m_RefCount: 1
    m_Data: {fileID: 11400000, guid: 8056e95a3b5a7824cb218dd4cce72ac2, type: 2}
  - m_RefCount: 1
    m_Data: {fileID: 11400000, guid: d043bf7b7361bda4f914ae3dd35f9ba2, type: 2}
  - m_RefCount: 1
    m_Data: {fileID: 11400000, guid: 9a42513f408fd3940840d81d823dd00f, type: 2}
  - m_RefCount: 1
    m_Data: {fileID: 11400000, guid: d50807fac74a7434da94c333c2c0e984, type: 2}
  - m_RefCount: 1
    m_Data: {fileID: 11400000, guid: f8dfd20d8e7e826448a542b98e5275db, type: 2}
  - m_RefCount: 1
    m_Data: {fileID: 11400000, guid: db97826f4f40a434f946692d7dcb054d, type: 2}
  - m_RefCount: 1
    m_Data: {fileID: 11400000, guid: 783733c334fae7c46b87bbf6ad0256ac, type: 2}
  - m_RefCount: 1
    m_Data: {fileID: 11400000, guid: c5beeb6ac3b033041b8aa796e3a1114e, type: 2}
  - m_RefCount: 1
    m_Data: {fileID: 11400000, guid: 28baddedbe4e30c40b26cbe687956edf, type: 2}
  - m_RefCount: 1
    m_Data: {fileID: 11400000, guid: e022436a5bb1a39429d33295e2b64d7a, type: 2}
  - m_RefCount: 1
    m_Data: {fileID: 11400000, guid: 1a436b4c79722114ba4aafa20ae66036, type: 2}
  - m_RefCount: 1
    m_Data: {fileID: 11400000, guid: bffec8cb068125a40a5bb7eda86f4853, type: 2}
  - m_RefCount: 1
    m_Data: {fileID: 11400000, guid: d5c0c12cca0c9104d900c97fed42180b, type: 2}
  - m_RefCount: 1
    m_Data: {fileID: 11400000, guid: 08c6bb4021913c14b9d2cfa706ac4a4f, type: 2}
  - m_RefCount: 1
    m_Data: {fileID: 11400000, guid: 3c1b0c404d02c4a4da98a7dd27d804da, type: 2}
  - m_RefCount: 1
    m_Data: {fileID: 11400000, guid: 6fa72c9df268eeb48ad494a1e7e90b0d, type: 2}
  - m_RefCount: 1
    m_Data: {fileID: 11400000, guid: ec17b6575fda8fb4d938f65fc0194cc2, type: 2}
  - m_RefCount: 1
    m_Data: {fileID: 11400000, guid: b1f13fdcb6e22f241955038ea1535639, type: 2}
  - m_RefCount: 1
    m_Data: {fileID: 11400000, guid: 239b753e03dfa6240b1ac3ed52cf22ee, type: 2}
  - m_RefCount: 1
    m_Data: {fileID: 11400000, guid: c83afbeea2c5fe54388f7c3aa51c02a0, type: 2}
  - m_RefCount: 1
    m_Data: {fileID: 11400000, guid: 7f22652dfcce7324eaf18a67456922c7, type: 2}
  - m_RefCount: 1
    m_Data: {fileID: 11400000, guid: c87266f1ec60bc14b8d3cabe69102b4a, type: 2}
  - m_RefCount: 1
    m_Data: {fileID: 11400000, guid: 896c29f4a041fff42a53d78c9319fa75, type: 2}
  - m_RefCount: 1
    m_Data: {fileID: 11400000, guid: bd17d40f4832f6a4892836f47dcba8d8, type: 2}
  - m_RefCount: 1
    m_Data: {fileID: 11400000, guid: 71598d9ff1f24014dabaa7e66433e22d, type: 2}
  - m_RefCount: 1
    m_Data: {fileID: 11400000, guid: 3447773a390484a4a91bae4c65b3c14e, type: 2}
  - m_RefCount: 1
    m_Data: {fileID: 11400000, guid: 977d41d1a1281ad4fbc19473f2e61926, type: 2}
  - m_RefCount: 1
    m_Data: {fileID: 11400000, guid: 029be30a64d567f488fc123fb8fd1ca2, type: 2}
  - m_RefCount: 1
    m_Data: {fileID: 11400000, guid: 0d61733e473b1474eb9491157ebe1365, type: 2}
  - m_RefCount: 1
    m_Data: {fileID: 11400000, guid: a6ca9306edf350b4c878e60a4760ee8a, type: 2}
  - m_RefCount: 1
    m_Data: {fileID: 11400000, guid: 975eba5fad0a7aa408607a9c62262fe3, type: 2}
  - m_RefCount: 1
    m_Data: {fileID: 11400000, guid: 01ebfb68f76888e4fa4cd3bfdcd16ad9, type: 2}
  - m_RefCount: 1
    m_Data: {fileID: 11400000, guid: f936a59c211572c46b4e82bae0149262, type: 2}
  - m_RefCount: 1
    m_Data: {fileID: 11400000, guid: 93738f80aa2a34a42ab39cf56ebd06ac, type: 2}
  - m_RefCount: 1
    m_Data: {fileID: 11400000, guid: 8d48272a148811a4a9500ae58df62661, type: 2}
  - m_RefCount: 1
    m_Data: {fileID: 11400000, guid: f84dba20fc0cd9e4a9b3fc6a01909962, type: 2}
  - m_RefCount: 1
    m_Data: {fileID: 11400000, guid: aaac8b60474748b4383e99cd1c65f32d, type: 2}
  - m_RefCount: 0
    m_Data: {fileID: 0}
  - m_RefCount: 0
    m_Data: {fileID: 0}
  - m_RefCount: 0
    m_Data: {fileID: 0}
  - m_RefCount: 0
    m_Data: {fileID: 0}
  - m_RefCount: 1
    m_Data: {fileID: 11400000, guid: 62e9d8ba41521a349a81d5baa0528c41, type: 2}
  - m_RefCount: 1
    m_Data: {fileID: 11400000, guid: 5942462022862fc4db1d8d73f4be6e8b, type: 2}
  - m_RefCount: 1
    m_Data: {fileID: 11400000, guid: db4285d59792c984f9c524242d5e44f7, type: 2}
  - m_RefCount: 1
    m_Data: {fileID: 11400000, guid: 8cf6eb7341c19ea49ada41556edc6d63, type: 2}
  - m_RefCount: 1
    m_Data: {fileID: 11400000, guid: 4a49971ac31328243b3ac1fc0834b270, type: 2}
  - m_RefCount: 1
    m_Data: {fileID: 11400000, guid: e6b4871e21c1c1944a8270e5b1ba735a, type: 2}
  - m_RefCount: 1
    m_Data: {fileID: 11400000, guid: 1cbd6bfacbfe0314d8f4b077a337c328, type: 2}
  - m_RefCount: 1
    m_Data: {fileID: 11400000, guid: 23c80a9a0031da04b9ad58582036c7c6, type: 2}
  - m_RefCount: 1
    m_Data: {fileID: 11400000, guid: 3ae9d46972b161c4a82c80aee2a4e4c4, type: 2}
  - m_RefCount: 1
    m_Data: {fileID: 11400000, guid: 68660d831d3a32348bc8ebbf1c44db65, type: 2}
  - m_RefCount: 1
    m_Data: {fileID: 11400000, guid: 8457b4cf8710f0a4687f342daa321a67, type: 2}
  - m_RefCount: 1
    m_Data: {fileID: 11400000, guid: 5196043cbeacd664db79ec63b4f10482, type: 2}
  - m_RefCount: 0
    m_Data: {fileID: 0}
  - m_RefCount: 0
    m_Data: {fileID: 0}
  - m_RefCount: 0
    m_Data: {fileID: 0}
  - m_RefCount: 0
    m_Data: {fileID: 0}
  m_TileSpriteArray:
  - m_RefCount: 0
    m_Data: {fileID: 0}
  - m_RefCount: 0
    m_Data: {fileID: 0}
  - m_RefCount: 0
    m_Data: {fileID: 0}
  - m_RefCount: 0
    m_Data: {fileID: 0}
  - m_RefCount: 0
    m_Data: {fileID: 0}
  - m_RefCount: 0
    m_Data: {fileID: 0}
  - m_RefCount: 0
    m_Data: {fileID: 0}
  - m_RefCount: 0
    m_Data: {fileID: 0}
  - m_RefCount: 0
    m_Data: {fileID: 0}
  - m_RefCount: 1
    m_Data: {fileID: -3830439675495927966, guid: f80786cf775054943842ffd04067e42d,
      type: 3}
  - m_RefCount: 1
    m_Data: {fileID: 3308380105287645969, guid: 05ded9c57adf1d1449c7e93225ec6566,
      type: 3}
  - m_RefCount: 1
    m_Data: {fileID: -859568254435293742, guid: 0270a0d86eab31b4db104619eef9052e,
      type: 3}
  - m_RefCount: 1
    m_Data: {fileID: 21300000, guid: 6f05f57d45323804b91453c1996b1526, type: 3}
  - m_RefCount: 1
    m_Data: {fileID: 21300000, guid: 7b4730d2863e8664697ced100de46ce1, type: 3}
  - m_RefCount: 1
    m_Data: {fileID: 21300000, guid: ed1845b96f1f1394295962617281ce44, type: 3}
  - m_RefCount: 1
    m_Data: {fileID: 21300000, guid: 1ccd46a5423273046b470c1385f27200, type: 3}
  - m_RefCount: 1
    m_Data: {fileID: -6343519296654054873, guid: 007bb8b6d2efdfb4fbe808d9079e03ed,
      type: 3}
  - m_RefCount: 1
    m_Data: {fileID: -4917246509589660587, guid: 007bb8b6d2efdfb4fbe808d9079e03ed,
      type: 3}
  - m_RefCount: 1
    m_Data: {fileID: -2791041982528332784, guid: 007bb8b6d2efdfb4fbe808d9079e03ed,
      type: 3}
  - m_RefCount: 1
    m_Data: {fileID: 7603596860735191224, guid: 007bb8b6d2efdfb4fbe808d9079e03ed,
      type: 3}
  - m_RefCount: 1
    m_Data: {fileID: 198327761963240103, guid: 007bb8b6d2efdfb4fbe808d9079e03ed, type: 3}
  - m_RefCount: 1
    m_Data: {fileID: -5343778567584597206, guid: 007bb8b6d2efdfb4fbe808d9079e03ed,
      type: 3}
  - m_RefCount: 1
    m_Data: {fileID: -2669738015307646140, guid: 007bb8b6d2efdfb4fbe808d9079e03ed,
      type: 3}
  - m_RefCount: 1
    m_Data: {fileID: -2297678339837889277, guid: 007bb8b6d2efdfb4fbe808d9079e03ed,
      type: 3}
  - m_RefCount: 1
    m_Data: {fileID: -67260320283365526, guid: 007bb8b6d2efdfb4fbe808d9079e03ed, type: 3}
  - m_RefCount: 1
    m_Data: {fileID: 1194775552194177182, guid: 007bb8b6d2efdfb4fbe808d9079e03ed,
      type: 3}
  - m_RefCount: 1
    m_Data: {fileID: -2971560487978958717, guid: 007bb8b6d2efdfb4fbe808d9079e03ed,
      type: 3}
  - m_RefCount: 1
    m_Data: {fileID: 1497654537045197512, guid: 007bb8b6d2efdfb4fbe808d9079e03ed,
      type: 3}
  - m_RefCount: 1
    m_Data: {fileID: -3675717388011300749, guid: 007bb8b6d2efdfb4fbe808d9079e03ed,
      type: 3}
  - m_RefCount: 1
    m_Data: {fileID: 7168705448075581056, guid: 007bb8b6d2efdfb4fbe808d9079e03ed,
      type: 3}
  - m_RefCount: 1
    m_Data: {fileID: 9118974377659613285, guid: 007bb8b6d2efdfb4fbe808d9079e03ed,
      type: 3}
  - m_RefCount: 1
    m_Data: {fileID: -8671202371429318906, guid: 007bb8b6d2efdfb4fbe808d9079e03ed,
      type: 3}
  - m_RefCount: 1
    m_Data: {fileID: -7131194573353445407, guid: 007bb8b6d2efdfb4fbe808d9079e03ed,
      type: 3}
  - m_RefCount: 1
    m_Data: {fileID: 2000318658764212219, guid: 007bb8b6d2efdfb4fbe808d9079e03ed,
      type: 3}
  - m_RefCount: 1
    m_Data: {fileID: -3053032850354778017, guid: 007bb8b6d2efdfb4fbe808d9079e03ed,
      type: 3}
  - m_RefCount: 1
    m_Data: {fileID: 4582258180007055615, guid: 007bb8b6d2efdfb4fbe808d9079e03ed,
      type: 3}
  - m_RefCount: 1
    m_Data: {fileID: -9019370586224916440, guid: 007bb8b6d2efdfb4fbe808d9079e03ed,
      type: 3}
  - m_RefCount: 1
    m_Data: {fileID: 2498972166423581701, guid: 007bb8b6d2efdfb4fbe808d9079e03ed,
      type: 3}
  - m_RefCount: 1
    m_Data: {fileID: -1020003207166317292, guid: 007bb8b6d2efdfb4fbe808d9079e03ed,
      type: 3}
  - m_RefCount: 1
    m_Data: {fileID: -8718846420707220360, guid: 007bb8b6d2efdfb4fbe808d9079e03ed,
      type: 3}
  - m_RefCount: 1
    m_Data: {fileID: -1680656839057344312, guid: 007bb8b6d2efdfb4fbe808d9079e03ed,
      type: 3}
  - m_RefCount: 1
    m_Data: {fileID: 5802382940043802597, guid: 007bb8b6d2efdfb4fbe808d9079e03ed,
      type: 3}
  - m_RefCount: 1
    m_Data: {fileID: 7803244411431362681, guid: 007bb8b6d2efdfb4fbe808d9079e03ed,
      type: 3}
  - m_RefCount: 1
    m_Data: {fileID: -6281372894776990157, guid: 007bb8b6d2efdfb4fbe808d9079e03ed,
      type: 3}
  - m_RefCount: 1
    m_Data: {fileID: -3843204344904844177, guid: 007bb8b6d2efdfb4fbe808d9079e03ed,
      type: 3}
  - m_RefCount: 1
    m_Data: {fileID: -6793467927654196686, guid: 007bb8b6d2efdfb4fbe808d9079e03ed,
      type: 3}
  - m_RefCount: 1
    m_Data: {fileID: 4616144251219174747, guid: 007bb8b6d2efdfb4fbe808d9079e03ed,
      type: 3}
  - m_RefCount: 1
    m_Data: {fileID: -8447794606436959138, guid: 007bb8b6d2efdfb4fbe808d9079e03ed,
      type: 3}
  - m_RefCount: 1
    m_Data: {fileID: 5515580552219433423, guid: 007bb8b6d2efdfb4fbe808d9079e03ed,
      type: 3}
  - m_RefCount: 1
    m_Data: {fileID: 3139700333482706574, guid: 007bb8b6d2efdfb4fbe808d9079e03ed,
      type: 3}
  - m_RefCount: 1
    m_Data: {fileID: 5613609842964036939, guid: 007bb8b6d2efdfb4fbe808d9079e03ed,
      type: 3}
  - m_RefCount: 1
    m_Data: {fileID: -2102368444492911589, guid: 007bb8b6d2efdfb4fbe808d9079e03ed,
      type: 3}
  - m_RefCount: 1
    m_Data: {fileID: 5359956806324251708, guid: 007bb8b6d2efdfb4fbe808d9079e03ed,
      type: 3}
  - m_RefCount: 1
    m_Data: {fileID: 3108537083571099360, guid: 007bb8b6d2efdfb4fbe808d9079e03ed,
      type: 3}
  - m_RefCount: 1
    m_Data: {fileID: 4869644437843835221, guid: 007bb8b6d2efdfb4fbe808d9079e03ed,
      type: 3}
  - m_RefCount: 1
    m_Data: {fileID: -3907501461650199765, guid: 007bb8b6d2efdfb4fbe808d9079e03ed,
      type: 3}
  - m_RefCount: 1
    m_Data: {fileID: -6625809044397681302, guid: 007bb8b6d2efdfb4fbe808d9079e03ed,
      type: 3}
  - m_RefCount: 1
    m_Data: {fileID: -7365346576805866900, guid: 007bb8b6d2efdfb4fbe808d9079e03ed,
      type: 3}
  - m_RefCount: 1
    m_Data: {fileID: 7604668463972655609, guid: 007bb8b6d2efdfb4fbe808d9079e03ed,
      type: 3}
  - m_RefCount: 1
    m_Data: {fileID: 8054355832321402330, guid: 007bb8b6d2efdfb4fbe808d9079e03ed,
      type: 3}
  - m_RefCount: 1
    m_Data: {fileID: 9073414659263081520, guid: 007bb8b6d2efdfb4fbe808d9079e03ed,
      type: 3}
  - m_RefCount: 1
    m_Data: {fileID: 2127383828125186975, guid: 007bb8b6d2efdfb4fbe808d9079e03ed,
      type: 3}
  - m_RefCount: 1
    m_Data: {fileID: 7793541705929876910, guid: 007bb8b6d2efdfb4fbe808d9079e03ed,
      type: 3}
  - m_RefCount: 1
    m_Data: {fileID: -4265210035970821296, guid: 007bb8b6d2efdfb4fbe808d9079e03ed,
      type: 3}
  - m_RefCount: 1
    m_Data: {fileID: 3575207316984784501, guid: 007bb8b6d2efdfb4fbe808d9079e03ed,
      type: 3}
  - m_RefCount: 1
    m_Data: {fileID: -329807682860033722, guid: 007bb8b6d2efdfb4fbe808d9079e03ed,
      type: 3}
  - m_RefCount: 1
    m_Data: {fileID: 5543355331481416411, guid: 007bb8b6d2efdfb4fbe808d9079e03ed,
      type: 3}
  - m_RefCount: 1
    m_Data: {fileID: 6539738197558432422, guid: 007bb8b6d2efdfb4fbe808d9079e03ed,
      type: 3}
  - m_RefCount: 1
    m_Data: {fileID: 2330615992907441848, guid: 007bb8b6d2efdfb4fbe808d9079e03ed,
      type: 3}
  - m_RefCount: 1
    m_Data: {fileID: -3339002421412037762, guid: 007bb8b6d2efdfb4fbe808d9079e03ed,
      type: 3}
  - m_RefCount: 1
    m_Data: {fileID: 4418268933478749330, guid: 007bb8b6d2efdfb4fbe808d9079e03ed,
      type: 3}
  - m_RefCount: 1
    m_Data: {fileID: -2438843658756123571, guid: 007bb8b6d2efdfb4fbe808d9079e03ed,
      type: 3}
  - m_RefCount: 1
    m_Data: {fileID: -5701913029375915191, guid: 007bb8b6d2efdfb4fbe808d9079e03ed,
      type: 3}
  - m_RefCount: 1
    m_Data: {fileID: 6382302790431110032, guid: 007bb8b6d2efdfb4fbe808d9079e03ed,
      type: 3}
  - m_RefCount: 1
    m_Data: {fileID: 113466129880461321, guid: 007bb8b6d2efdfb4fbe808d9079e03ed, type: 3}
  - m_RefCount: 1
    m_Data: {fileID: -7582207473722716598, guid: 007bb8b6d2efdfb4fbe808d9079e03ed,
      type: 3}
  - m_RefCount: 1
    m_Data: {fileID: 8520943869987402425, guid: 007bb8b6d2efdfb4fbe808d9079e03ed,
      type: 3}
  - m_RefCount: 1
    m_Data: {fileID: -3564777485283095739, guid: 007bb8b6d2efdfb4fbe808d9079e03ed,
      type: 3}
  - m_RefCount: 1
    m_Data: {fileID: -5673278798345599059, guid: 007bb8b6d2efdfb4fbe808d9079e03ed,
      type: 3}
  - m_RefCount: 1
    m_Data: {fileID: -3685791462794059503, guid: 007bb8b6d2efdfb4fbe808d9079e03ed,
      type: 3}
  - m_RefCount: 1
    m_Data: {fileID: 3018018900400578528, guid: 007bb8b6d2efdfb4fbe808d9079e03ed,
      type: 3}
  - m_RefCount: 1
    m_Data: {fileID: -8077744885297897661, guid: 007bb8b6d2efdfb4fbe808d9079e03ed,
      type: 3}
  - m_RefCount: 1
    m_Data: {fileID: -8120040315211294159, guid: 007bb8b6d2efdfb4fbe808d9079e03ed,
      type: 3}
  - m_RefCount: 1
    m_Data: {fileID: 4131542717008771627, guid: 007bb8b6d2efdfb4fbe808d9079e03ed,
      type: 3}
  - m_RefCount: 1
    m_Data: {fileID: -8233407340692220617, guid: 007bb8b6d2efdfb4fbe808d9079e03ed,
      type: 3}
  - m_RefCount: 1
    m_Data: {fileID: 21300000, guid: 52db7a053ffaf064e9b83fc3476df95d, type: 3}
  - m_RefCount: 1
    m_Data: {fileID: -3015883018749221715, guid: 007bb8b6d2efdfb4fbe808d9079e03ed,
      type: 3}
  - m_RefCount: 1
    m_Data: {fileID: 6484311554862978555, guid: 007bb8b6d2efdfb4fbe808d9079e03ed,
      type: 3}
  - m_RefCount: 1
    m_Data: {fileID: 365240933877879282, guid: 007bb8b6d2efdfb4fbe808d9079e03ed, type: 3}
  - m_RefCount: 1
    m_Data: {fileID: 7571522258589489921, guid: 007bb8b6d2efdfb4fbe808d9079e03ed,
      type: 3}
  - m_RefCount: 1
    m_Data: {fileID: 7407790550092901962, guid: 007bb8b6d2efdfb4fbe808d9079e03ed,
      type: 3}
  - m_RefCount: 1
    m_Data: {fileID: 736037565102701571, guid: 007bb8b6d2efdfb4fbe808d9079e03ed, type: 3}
  - m_RefCount: 1
    m_Data: {fileID: 7152219933858350172, guid: 007bb8b6d2efdfb4fbe808d9079e03ed,
      type: 3}
  - m_RefCount: 1
    m_Data: {fileID: -8159112258552732388, guid: 007bb8b6d2efdfb4fbe808d9079e03ed,
      type: 3}
  - m_RefCount: 1
    m_Data: {fileID: -9169103410807245697, guid: 007bb8b6d2efdfb4fbe808d9079e03ed,
      type: 3}
  - m_RefCount: 1
    m_Data: {fileID: -3171826077147836033, guid: 007bb8b6d2efdfb4fbe808d9079e03ed,
      type: 3}
  - m_RefCount: 1
    m_Data: {fileID: -2652159029634533251, guid: 007bb8b6d2efdfb4fbe808d9079e03ed,
      type: 3}
  - m_RefCount: 1
    m_Data: {fileID: -3863270000433743358, guid: 007bb8b6d2efdfb4fbe808d9079e03ed,
      type: 3}
  - m_RefCount: 1
    m_Data: {fileID: -5652490260500242196, guid: 007bb8b6d2efdfb4fbe808d9079e03ed,
      type: 3}
  - m_RefCount: 1
    m_Data: {fileID: -1364626516741762822, guid: 007bb8b6d2efdfb4fbe808d9079e03ed,
      type: 3}
  - m_RefCount: 1
    m_Data: {fileID: -5385800999692259534, guid: 007bb8b6d2efdfb4fbe808d9079e03ed,
      type: 3}
  - m_RefCount: 1
    m_Data: {fileID: 21300000, guid: 24e887c5c8e7ff64db083d7bcbf26970, type: 3}
  - m_RefCount: 1
    m_Data: {fileID: 8599897880836715829, guid: f80786cf775054943842ffd04067e42d,
      type: 3}
  - m_RefCount: 1
    m_Data: {fileID: 4956199642309463649, guid: 05ded9c57adf1d1449c7e93225ec6566,
      type: 3}
  - m_RefCount: 1
    m_Data: {fileID: -8901574118970104217, guid: 0270a0d86eab31b4db104619eef9052e,
      type: 3}
  m_TileMatrixArray:
  - m_RefCount: 96
    m_Data:
      e00: 1
      e01: 0
      e02: 0
      e03: 0
      e10: 0
      e11: 1
      e12: 0
      e13: 0
      e20: 0
      e21: 0
      e22: 1
      e23: 0
      e30: 0
      e31: 0
      e32: 0
      e33: 1
  m_TileColorArray:
  - m_RefCount: 96
    m_Data: {r: 1, g: 1, b: 1, a: 1}
  - m_RefCount: 0
    m_Data: {r: 0.000000001972431, g: 0.000000001972431, b: 0.000000001972431, a: 0.000000001972431}
  - m_RefCount: 0
    m_Data: {r: 0.000000012169863, g: 0.000000012169863, b: 0.000000012169863, a: 0.000000012169863}
  - m_RefCount: 0
    m_Data: {r: 0.0000000017247572, g: 0.0000000017247572, b: 0.0000000017247572,
      a: 0.0000000017247572}
  - m_RefCount: 0
    m_Data: {r: 0.0000000041358703, g: 0.0000000041358703, b: 0.0000000041358703,
      a: 0.0000000041358703}
  - m_RefCount: 0
    m_Data: {r: 0.0000000021118467, g: 0.0000000021118467, b: 0.0000000021118467,
      a: 0.0000000021118467}
  - m_RefCount: 0
    m_Data: {r: 0.000000012138969, g: 0.000000012138969, b: 0.000000012138969, a: 0.000000012138969}
  - m_RefCount: 0
    m_Data: {r: 0.000000012108757, g: 0.000000012108757, b: 0.000000012108757, a: 0.000000012108757}
  - m_RefCount: 0
    m_Data: {r: 0.0000000017707009, g: 0.0000000017707009, b: 0.0000000017707009,
      a: 0.0000000017707009}
  - m_RefCount: 0
    m_Data: {r: 0.0000000019889654, g: 0.0000000019889654, b: 0.0000000019889654,
      a: 0.0000000019889654}
  m_TileObjectToInstantiateArray: []
  m_AnimationFrameRate: 1
  m_Color: {r: 1, g: 1, b: 1, a: 1}
  m_Origin: {x: -16, y: -13, z: 0}
  m_Size: {x: 26, y: 23, z: 1}
  m_TileAnchor: {x: 0.5, y: 0.5, z: 0}
  m_TileOrientation: 0
  m_TileOrientationMatrix:
    e00: 1
    e01: 0
    e02: 0
    e03: 0
    e10: 0
    e11: 1
    e12: 0
    e13: 0
    e20: 0
    e21: 0
    e22: 1
    e23: 0
    e30: 0
    e31: 0
    e32: 0
    e33: 1
--- !u!483693784 &2394969793150851577
TilemapRenderer:
  m_ObjectHideFlags: 0
  m_CorrespondingSourceObject: {fileID: 0}
  m_PrefabInstance: {fileID: 0}
  m_PrefabAsset: {fileID: 0}
  m_GameObject: {fileID: 1720228151189410318}
  m_Enabled: 0
  m_CastShadows: 0
  m_ReceiveShadows: 0
  m_DynamicOccludee: 0
  m_MotionVectors: 1
  m_LightProbeUsage: 0
  m_ReflectionProbeUsage: 0
  m_RayTracingMode: 0
  m_RenderingLayerMask: 1
  m_RendererPriority: 0
  m_Materials:
  - {fileID: 2100000, guid: a97c105638bdf8b4a8650670310a4cd3, type: 2}
  m_StaticBatchInfo:
    firstSubMesh: 0
    subMeshCount: 0
  m_StaticBatchRoot: {fileID: 0}
  m_ProbeAnchor: {fileID: 0}
  m_LightProbeVolumeOverride: {fileID: 0}
  m_ScaleInLightmap: 1
  m_ReceiveGI: 1
  m_PreserveUVs: 0
  m_IgnoreNormalsForChartDetection: 0
  m_ImportantGI: 0
  m_StitchLightmapSeams: 1
  m_SelectedEditorRenderState: 0
  m_MinimumChartSize: 4
  m_AutoUVMaxDistance: 0.5
  m_AutoUVMaxAngle: 89
  m_LightmapParameters: {fileID: 0}
  m_SortingLayerID: 0
  m_SortingLayer: 0
  m_SortingOrder: 0
  m_ChunkSize: {x: 32, y: 32, z: 32}
  m_ChunkCullingBounds: {x: 0, y: 0, z: 0}
  m_MaxChunkCount: 16
  m_MaxFrameAge: 16
  m_SortOrder: 0
  m_Mode: 0
  m_DetectChunkCullingBounds: 0
  m_MaskInteraction: 0
--- !u!1 &6363700252101057686
GameObject:
  m_ObjectHideFlags: 0
  m_CorrespondingSourceObject: {fileID: 0}
  m_PrefabInstance: {fileID: 0}
  m_PrefabAsset: {fileID: 0}
  serializedVersion: 6
  m_Component:
  - component: {fileID: 3287211974110163917}
  - component: {fileID: 1804088627319717399}
  m_Layer: 31
  m_Name: Platform
  m_TagString: Untagged
  m_Icon: {fileID: 0}
  m_NavMeshLayer: 0
  m_StaticEditorFlags: 0
  m_IsActive: 1
--- !u!4 &3287211974110163917
Transform:
  m_ObjectHideFlags: 0
  m_CorrespondingSourceObject: {fileID: 0}
  m_PrefabInstance: {fileID: 0}
  m_PrefabAsset: {fileID: 0}
  m_GameObject: {fileID: 6363700252101057686}
  m_LocalRotation: {x: 0, y: 0, z: 0, w: 1}
  m_LocalPosition: {x: 0, y: 0, z: 0}
  m_LocalScale: {x: 1, y: 1, z: 1}
  m_Children:
  - {fileID: 9139720657581080648}
  m_Father: {fileID: 0}
  m_RootOrder: 0
  m_LocalEulerAnglesHint: {x: 0, y: 0, z: 0}
--- !u!156049354 &1804088627319717399
Grid:
  m_ObjectHideFlags: 0
  m_CorrespondingSourceObject: {fileID: 0}
  m_PrefabInstance: {fileID: 0}
  m_PrefabAsset: {fileID: 0}
  m_GameObject: {fileID: 6363700252101057686}
  m_Enabled: 1
  m_CellSize: {x: 1, y: 1, z: 0}
  m_CellGap: {x: 0, y: 0, z: 0}
  m_CellLayout: 0
  m_CellSwizzle: 0
--- !u!114 &-3135068151564676424
MonoBehaviour:
  m_ObjectHideFlags: 0
  m_CorrespondingSourceObject: {fileID: 0}
  m_PrefabInstance: {fileID: 0}
  m_PrefabAsset: {fileID: 0}
  m_GameObject: {fileID: 0}
  m_Enabled: 1
  m_EditorHideFlags: 0
  m_Script: {fileID: 12395, guid: 0000000000000000e000000000000000, type: 0}
  m_Name: Palette Settings
  m_EditorClassIdentifier: 
  cellSizing: 0
