%YAML 1.1
%TAG !u! tag:unity3d.com,2011:
--- !u!74 &7400000
AnimationClip:
  m_ObjectHideFlags: 0
  m_CorrespondingSourceObject: {fileID: 0}
  m_PrefabInstance: {fileID: 0}
  m_PrefabAsset: {fileID: 0}
  m_Name: PowerUp
  serializedVersion: 6
  m_Legacy: 0
  m_Compressed: 0
  m_UseHighQualityCurve: 1
  m_RotationCurves: []
  m_CompressedRotationCurves: []
  m_EulerCurves: []
  m_PositionCurves: []
  m_ScaleCurves: []
  m_FloatCurves: []
  m_PPtrCurves:
  - curve:
    - time: 0
      value: {fileID: 1822135483929954065, guid: 219d8f1107c4d8b48a70423fa3de9ce6,
        type: 3}
    - time: 0.083333336
      value: {fileID: 2408873155972346575, guid: 219d8f1107c4d8b48a70423fa3de9ce6,
        type: 3}
    - time: 0.16666667
      value: {fileID: -2564030490257031564, guid: 219d8f1107c4d8b48a70423fa3de9ce6,
        type: 3}
    - time: 0.23333333
      value: {fileID: 780958771373146902, guid: 219d8f1107c4d8b48a70423fa3de9ce6,
        type: 3}
    - time: 0.31666666
      value: {fileID: -257037813613097672, guid: 219d8f1107c4d8b48a70423fa3de9ce6,
        type: 3}
    - time: 0.38333333
      value: {fileID: -6237773786392290866, guid: 219d8f1107c4d8b48a70423fa3de9ce6,
        type: 3}
    - time: 0.46666667
      value: {fileID: 8556514064900672386, guid: 219d8f1107c4d8b48a70423fa3de9ce6,
        type: 3}
    - time: 0.55
      value: {fileID: 1258111647198427863, guid: 219d8f1107c4d8b48a70423fa3de9ce6,
        type: 3}
    - time: 0.6166667
      value: {fileID: -1491137903605328817, guid: 219d8f1107c4d8b48a70423fa3de9ce6,
        type: 3}
    - time: 0.68333334
      value: {fileID: 8556514064900672386, guid: 219d8f1107c4d8b48a70423fa3de9ce6,
        type: 3}
    - time: 0.78333336
      value: {fileID: 1258111647198427863, guid: 219d8f1107c4d8b48a70423fa3de9ce6,
        type: 3}
    - time: 0.85
      value: {fileID: -1491137903605328817, guid: 219d8f1107c4d8b48a70423fa3de9ce6,
        type: 3}
    - time: 0.93333334
      value: {fileID: 3974264485380816060, guid: 219d8f1107c4d8b48a70423fa3de9ce6,
        type: 3}
    - time: 1
      value: {fileID: 5650052136018673979, guid: 219d8f1107c4d8b48a70423fa3de9ce6,
        type: 3}
    attribute: m_Sprite
    path: 
    classID: 212
    script: {fileID: 0}
  m_SampleRate: 60
  m_WrapMode: 0
  m_Bounds:
    m_Center: {x: 0, y: 0, z: 0}
    m_Extent: {x: 0, y: 0, z: 0}
  m_ClipBindingConstant:
    genericBindings:
    - serializedVersion: 2
      path: 0
      attribute: 0
      script: {fileID: 0}
      typeID: 212
      customType: 23
      isPPtrCurve: 1
    pptrCurveMapping:
    - {fileID: 1822135483929954065, guid: 219d8f1107c4d8b48a70423fa3de9ce6, type: 3}
    - {fileID: 2408873155972346575, guid: 219d8f1107c4d8b48a70423fa3de9ce6, type: 3}
    - {fileID: -2564030490257031564, guid: 219d8f1107c4d8b48a70423fa3de9ce6, type: 3}
    - {fileID: 780958771373146902, guid: 219d8f1107c4d8b48a70423fa3de9ce6, type: 3}
    - {fileID: -257037813613097672, guid: 219d8f1107c4d8b48a70423fa3de9ce6, type: 3}
    - {fileID: -6237773786392290866, guid: 219d8f1107c4d8b48a70423fa3de9ce6, type: 3}
    - {fileID: 8556514064900672386, guid: 219d8f1107c4d8b48a70423fa3de9ce6, type: 3}
    - {fileID: 1258111647198427863, guid: 219d8f1107c4d8b48a70423fa3de9ce6, type: 3}
    - {fileID: -1491137903605328817, guid: 219d8f1107c4d8b48a70423fa3de9ce6, type: 3}
    - {fileID: 8556514064900672386, guid: 219d8f1107c4d8b48a70423fa3de9ce6, type: 3}
    - {fileID: 1258111647198427863, guid: 219d8f1107c4d8b48a70423fa3de9ce6, type: 3}
    - {fileID: -1491137903605328817, guid: 219d8f1107c4d8b48a70423fa3de9ce6, type: 3}
    - {fileID: 3974264485380816060, guid: 219d8f1107c4d8b48a70423fa3de9ce6, type: 3}
    - {fileID: 5650052136018673979, guid: 219d8f1107c4d8b48a70423fa3de9ce6, type: 3}
  m_AnimationClipSettings:
    serializedVersion: 2
    m_AdditiveReferencePoseClip: {fileID: 0}
    m_AdditiveReferencePoseTime: 0
    m_StartTime: 0
    m_StopTime: 1.0166667
    m_OrientationOffsetY: 0
    m_Level: 0
    m_CycleOffset: 0
    m_HasAdditiveReferencePose: 0
    m_LoopTime: 1
    m_LoopBlend: 0
    m_LoopBlendOrientation: 0
    m_LoopBlendPositionY: 0
    m_LoopBlendPositionXZ: 0
    m_KeepOriginalOrientation: 0
    m_KeepOriginalPositionY: 1
    m_KeepOriginalPositionXZ: 0
    m_HeightFromFeet: 0
    m_Mirror: 0
  m_EditorCurves: []
  m_EulerEditorCurves: []
  m_HasGenericRootTransform: 0
  m_HasMotionFloatCurves: 0
  m_Events: []
