%YAML 1.1
%TAG !u! tag:unity3d.com,2011:
--- !u!1045 &1
EditorBuildSettings:
  m_ObjectHideFlags: 0
  serializedVersion: 2
  m_Scenes:
  - enabled: 1
    path: Assets/Scenes/SampleScene.unity
    guid: c5d207e6474914b4988639513fbe8128
  - enabled: 1
    path: Assets/Scenes/Option.unity
    guid: 9400148bb7879a6459e06f9fb13c94b4
  - enabled: 1
    path: Assets/Scenes/Intro.unity
    guid: 715096a22515716418fec6e662416304
  - enabled: 1
    path: Assets/Scenes/SceneDraw.unity
    guid: 5cc14debb8223c54cb1e4fd028c65f1f
  - enabled: 1
    path: Assets/Scenes/SceneBoss.unity
    guid: ced00cabf1ab9914b8d31cdcbaacf09d
  - enabled: 1
    path: Assets/Scenes/SceneMoney.unity
    guid: 7ba1025e4e3af8049bf7f5e462b38aa4
  - enabled: 1
    path: Assets/Scenes/Sceneslow.unity
    guid: f1e6295f0045c2a448c44929febe468a
  - enabled: 1
    path: Assets/Scenes/SceneDark.unity
    guid: fcee2dd9b8ad7be4cbbc28e48279fbf8
  - enabled: 1
    path: Assets/Scenes/SceneLight.unity
    guid: 6e76efa30ce550849ba04010f4ee6e82
  - enabled: 1
    path: Assets/Scenes/SceneTheGank.unity
    guid: bc400ccb7a248b649b965312d63e2811
  - enabled: 1
    path: Assets/Scenes/Win.unity
    guid: e6d29b5ec6dad8640a25e58945f93a1f
  m_configObjects: {}
